\relax 
\providecommand\hyper@newdestlabel[2]{}
\providecommand\HyperFirstAtBeginDocument{\AtBeginDocument}
\HyperFirstAtBeginDocument{\ifx\hyper@anchor\@undefined
\global\let\oldcontentsline\contentsline
\gdef\contentsline#1#2#3#4{\oldcontentsline{#1}{#2}{#3}}
\global\let\oldnewlabel\newlabel
\gdef\newlabel#1#2{\newlabelxx{#1}#2}
\gdef\newlabelxx#1#2#3#4#5#6{\oldnewlabel{#1}{{#2}{#3}}}
\AtEndDocument{\ifx\hyper@anchor\@undefined
\let\contentsline\oldcontentsline
\let\newlabel\oldnewlabel
\fi}
\fi}
\global\let\hyper@last\relax 
\gdef\HyperFirstAtBeginDocument#1{#1}
\providecommand\HyField@AuxAddToFields[1]{}
\providecommand\HyField@AuxAddToCoFields[2]{}
\@writefile{toc}{\contentsline {chapter}{\numberline {1}Travail pratique}{2}{chapter.1}}
\@writefile{lof}{\addvspace {10\p@ }}
\@writefile{lot}{\addvspace {10\p@ }}
\@writefile{toc}{\contentsline {section}{\numberline {1.1}Introduction}{2}{section.1.1}}
\@writefile{toc}{\contentsline {subsection}{\numberline {1.1.1}Mandelbrot}{2}{subsection.1.1.1}}
\newlabel{sec:mandelbrot}{{1.1.1}{2}{Mandelbrot}{subsection.1.1.1}{}}
\@writefile{lof}{\contentsline {figure}{\numberline {1.1}{\ignorespaces Repr\IeC {\'e}sentation graphique de l'ensemble de Mandelbrot\relax }}{3}{figure.caption.2}}
\providecommand*\caption@xref[2]{\@setref\relax\@undefined{#1}}
\newlabel{fig:mandel}{{1.1}{3}{Représentation graphique de l'ensemble de Mandelbrot\relax }{figure.caption.2}{}}
\@writefile{toc}{\contentsline {subsection}{\numberline {1.1.2}Xilinx Artix-7}{3}{subsection.1.1.2}}
\newlabel{sec:xilinx-artix-7}{{1.1.2}{3}{Xilinx Artix-7}{subsection.1.1.2}{}}
\@writefile{lof}{\contentsline {figure}{\numberline {1.2}{\ignorespaces Cible Nexys Video Artix-7\relax }}{3}{figure.caption.3}}
\newlabel{fig:artix}{{1.2}{3}{Cible Nexys Video Artix-7\relax }{figure.caption.3}{}}
\@writefile{toc}{\contentsline {section}{\numberline {1.2}Machine d'\IeC {\'e}tat Mandelbrot}{4}{section.1.2}}
\newlabel{sec:mach-detat-mand}{{1.2}{4}{Machine d'état Mandelbrot}{section.1.2}{}}
\@writefile{toc}{\contentsline {subsection}{\numberline {1.2.1}Partie calcul}{4}{subsection.1.2.1}}
\newlabel{sec:partie-calcul}{{1.2.1}{4}{Partie calcul}{subsection.1.2.1}{}}
\@writefile{lof}{\contentsline {figure}{\numberline {1.3}{\ignorespaces Sch\IeC {\'e}ma-bloc de la mani\IeC {\`e}re d'impl\IeC {\'e}menter le calcul de l'ensemble de Mandelbrot\relax }}{4}{figure.caption.4}}
\newlabel{fig:design}{{1.3}{4}{Schéma-bloc de la manière d'implémenter le calcul de l'ensemble de Mandelbrot\relax }{figure.caption.4}{}}
\@writefile{toc}{\contentsline {subsection}{\numberline {1.2.2}Impl\IeC {\'e}mentation de la machine d'\IeC {\'e}tat}{5}{subsection.1.2.2}}
\newlabel{sec:implementation-de-la}{{1.2.2}{5}{Implémentation de la machine d'état}{subsection.1.2.2}{}}
\@writefile{lof}{\contentsline {figure}{\numberline {1.4}{\ignorespaces Sch\IeC {\'e}ma pour la machine d'\IeC {\'e}tat Mandelbrot\relax }}{5}{figure.caption.5}}
\newlabel{fig:simple_fsm}{{1.4}{5}{Schéma pour la machine d'état Mandelbrot\relax }{figure.caption.5}{}}
\@writefile{toc}{\contentsline {subsection}{\numberline {1.2.3}Banc de test pour la machine d'\IeC {\'e}tat}{6}{subsection.1.2.3}}
\newlabel{sec:banc-de-test}{{1.2.3}{6}{Banc de test pour la machine d'état}{subsection.1.2.3}{}}
\@writefile{lof}{\contentsline {figure}{\numberline {1.5}{\ignorespaces R\IeC {\'e}sultats incorrects du testbench\relax }}{6}{figure.caption.6}}
\newlabel{fig:errortb}{{1.5}{6}{Résultats incorrects du testbench\relax }{figure.caption.6}{}}
\@writefile{lof}{\contentsline {figure}{\numberline {1.6}{\ignorespaces R\IeC {\'e}sum\IeC {\'e} r\IeC {\'e}sultats du testbench\relax }}{6}{figure.caption.7}}
\newlabel{fig:summarytb}{{1.6}{6}{Résumé résultats du testbench\relax }{figure.caption.7}{}}
\@writefile{toc}{\contentsline {section}{\numberline {1.3}G\IeC {\'e}n\IeC {\'e}ration d'image}{6}{section.1.3}}
\newlabel{sec:generation-dimage}{{1.3}{6}{Génération d'image}{section.1.3}{}}
\@writefile{lof}{\contentsline {figure}{\numberline {1.7}{\ignorespaces Sch\IeC {\'e}ma-bloc de l'entit\IeC {\'e} ImageGenerator\relax }}{7}{figure.caption.8}}
\newlabel{fig:imggen}{{1.7}{7}{Schéma-bloc de l'entité ImageGenerator\relax }{figure.caption.8}{}}
\@writefile{toc}{\contentsline {subsection}{\numberline {1.3.1}Int\IeC {\'e}gration de la machine d'\IeC {\'e}tat}{7}{subsection.1.3.1}}
\newlabel{sec:integration-de-la}{{1.3.1}{7}{Intégration de la machine d'état}{subsection.1.3.1}{}}
\@writefile{toc}{\contentsline {subsection}{\numberline {1.3.2}G\IeC {\'e}n\IeC {\'e}rateur de nombre complexe}{7}{subsection.1.3.2}}
\newlabel{sec:generateur-de-nombre}{{1.3.2}{7}{Générateur de nombre complexe}{subsection.1.3.2}{}}
\@writefile{toc}{\contentsline {section}{\numberline {1.4}Structure g\IeC {\'e}n\IeC {\'e}rale du projet \& domaines d'horloge}{8}{section.1.4}}
\newlabel{sec:struct-gener-du}{{1.4}{8}{Structure générale du projet \& domaines d'horloge}{section.1.4}{}}
\@writefile{toc}{\contentsline {subsection}{\numberline {1.4.1}Mappage avec la BRAM}{8}{subsection.1.4.1}}
\newlabel{sec:mappage-avec-la}{{1.4.1}{8}{Mappage avec la BRAM}{subsection.1.4.1}{}}
\@writefile{lof}{\contentsline {figure}{\numberline {1.8}{\ignorespaces Affichage de l'ensemble de Mandelbrot sur l'\IeC {\'e}cran\relax }}{8}{figure.caption.9}}
\newlabel{fig:mandel}{{1.8}{8}{Affichage de l'ensemble de Mandelbrot sur l'écran\relax }{figure.caption.9}{}}
\@writefile{toc}{\contentsline {subsection}{\numberline {1.4.2}Gestion des couleurs de la fractale}{8}{subsection.1.4.2}}
\newlabel{sec:gestion-des-couleurs}{{1.4.2}{8}{Gestion des couleurs de la fractale}{subsection.1.4.2}{}}
\@writefile{lof}{\contentsline {figure}{\numberline {1.9}{\ignorespaces Sch\IeC {\'e}ma g\IeC {\'e}n\IeC {\'e}ral de l'architecture du syst\IeC {\`e}me\relax }}{9}{figure.caption.10}}
\newlabel{fig:general}{{1.9}{9}{Schéma général de l'architecture du système\relax }{figure.caption.10}{}}
\@writefile{toc}{\contentsline {subsection}{\numberline {1.4.3}Informations g\IeC {\'e}n\IeC {\'e}rale sur le syst\IeC {\`e}me \& l'impl\IeC {\'e}mentation}{9}{subsection.1.4.3}}
\newlabel{sec:inform-gener-sur}{{1.4.3}{9}{Informations générale sur le système \& l'implémentation}{subsection.1.4.3}{}}
\@writefile{lof}{\contentsline {figure}{\numberline {1.10}{\ignorespaces Table et graph de l'utilisation des \IeC {\'e}l\IeC {\'e}ments de la FPGA\relax }}{9}{figure.caption.11}}
\newlabel{fig:usage}{{1.10}{9}{Table et graph de l'utilisation des éléments de la FPGA\relax }{figure.caption.11}{}}
\@writefile{lof}{\contentsline {subfigure}{\numberline{(a)}{\ignorespaces {Graph d'utilisation}}}{9}{subfigure.10.1}}
\@writefile{lof}{\contentsline {subfigure}{\numberline{(b)}{\ignorespaces {Table d'utilisation}}}{9}{subfigure.10.2}}
\@writefile{toc}{\contentsline {section}{\numberline {1.5}Conclusion}{10}{section.1.5}}
\newlabel{sec:conclusion}{{1.5}{10}{Conclusion}{section.1.5}{}}
\@writefile{toc}{\contentsline {subsection}{\numberline {1.5.1}Parties perfectibles}{10}{subsection.1.5.1}}
\newlabel{sec:parties-perfectibles}{{1.5.1}{10}{Parties perfectibles}{subsection.1.5.1}{}}
\@writefile{toc}{\contentsline {paragraph}{Bug d'affichage}{10}{section*.12}}
\@writefile{toc}{\contentsline {paragraph}{Pr\IeC {\'e}cision de la machine d'\IeC {\'e}tat}{10}{section*.13}}
\@writefile{toc}{\contentsline {subsection}{\numberline {1.5.2}Difficult\IeC {\'e}s rencontr\IeC {\'e}es}{10}{subsection.1.5.2}}
\newlabel{sec:diff-renc}{{1.5.2}{10}{Difficultés rencontrées}{subsection.1.5.2}{}}
\@writefile{toc}{\contentsline {paragraph}{Vivado}{10}{section*.14}}
\@writefile{toc}{\contentsline {paragraph}{Clef bootable et git}{10}{section*.15}}
\@writefile{toc}{\contentsline {paragraph}{Structure g\IeC {\'e}n\IeC {\'e}rale du projet}{11}{section*.16}}
\@writefile{toc}{\contentsline {subsection}{\numberline {1.5.3}B\IeC {\'e}n\IeC {\'e}fices \& concepts appris}{11}{subsection.1.5.3}}
\newlabel{sec:benefices--concepts}{{1.5.3}{11}{Bénéfices \& concepts appris}{subsection.1.5.3}{}}
