Copyright 1986-2018 Xilinx, Inc. All Rights Reserved.
----------------------------------------------------------------------------------------------
| Tool Version : Vivado v.2018.2 (lin64) Build 2258646 Thu Jun 14 20:02:38 MDT 2018
| Date         : Tue Jun  4 17:03:40 2019
| Host         : quartus running 64-bit Debian GNU/Linux 9.8 (stretch)
| Command      : report_control_sets -verbose -file mandelbrot_pinout_control_sets_placed.rpt
| Design       : mandelbrot_pinout
| Device       : xc7a200t
----------------------------------------------------------------------------------------------

Control Set Information

Table of Contents
-----------------
1. Summary
2. Histogram
3. Flip-Flop Distribution
4. Detailed Control Set Information

1. Summary
----------

+----------------------------------------------------------+-------+
|                          Status                          | Count |
+----------------------------------------------------------+-------+
| Number of unique control sets                            |   115 |
| Unused register locations in slices containing registers |   290 |
+----------------------------------------------------------+-------+


2. Histogram
------------

+--------+--------------+
| Fanout | Control Sets |
+--------+--------------+
|      2 |           17 |
|      4 |            4 |
|      6 |            2 |
|      8 |           13 |
|     10 |            3 |
|     12 |            7 |
|     14 |            3 |
|    16+ |           66 |
+--------+--------------+


3. Flip-Flop Distribution
-------------------------

+--------------+-----------------------+------------------------+-----------------+--------------+
| Clock Enable | Synchronous Set/Reset | Asynchronous Set/Reset | Total Registers | Total Slices |
+--------------+-----------------------+------------------------+-----------------+--------------+
| No           | No                    | No                     |             688 |          151 |
| No           | No                    | Yes                    |             202 |           42 |
| No           | Yes                   | No                     |             686 |          145 |
| Yes          | No                    | No                     |             440 |           56 |
| Yes          | No                    | Yes                    |             512 |           73 |
| Yes          | Yes                   | No                     |            1774 |          289 |
+--------------+-----------------------+------------------------+-----------------+--------------+


4. Detailed Control Set Information
-----------------------------------

+--------------------------------------------------------------------------------------------------+--------------------------------------------------------------------------------------------------------------------------------------------------------------------------------------------------------------------------------------------------+--------------------------------------------------------------------------------------------------------------------------------------------------------------------------------------+------------------+----------------+
|                                           Clock Signal                                           |                                                                                                                   Enable Signal                                                                                                                  |                                                                                   Set/Reset Signal                                                                                   | Slice Load Count | Bel Load Count |
+--------------------------------------------------------------------------------------------------+--------------------------------------------------------------------------------------------------------------------------------------------------------------------------------------------------------------------------------------------------+--------------------------------------------------------------------------------------------------------------------------------------------------------------------------------------+------------------+----------------+
|  UBlazeCDxB.UblazeSoPCxI/UblazeSoPCxB.UblazeCorexI/mdm/U0/Use_E2.BSCAN_I/Dbg_Update_31           | UBlazeCDxB.UblazeSoPCxI/UblazeSoPCxB.UblazeCorexI/ublaze_core/U0/MicroBlaze_Core_I/Performance.Core/Use_Debug_Logic.Master_Core.Debug_Perf/Control_Reg_En                                                                                        | UBlazeCDxB.UblazeSoPCxI/UblazeSoPCxB.UblazeCorexI/ublaze_core/U0/MicroBlaze_Core_I/Performance.Core/Use_Debug_Logic.Master_Core.Debug_Perf/Serial_Dbg_Intf.normal_stop_cmd_i_reg_n_0 |                1 |              2 |
| ~UBlazeCDxB.UblazeSoPCxI/UblazeSoPCxB.UblazeCorexI/mdm/U0/Use_E2.BSCAN_I/Dbg_Update_31           |                                                                                                                                                                                                                                                  | UBlazeCDxB.UblazeSoPCxI/UblazeSoPCxB.UblazeCorexI/mdm/U0/MDM_Core_I1/JTAG_CONTROL_I/sel_n                                                                                            |                1 |              2 |
|  UBlazeCDxB.UblazeSoPCxI/UblazeSoPCxB.UblazeCorexI/mdm/U0/No_Dbg_Reg_Access.BUFG_DRCK/Dbg_Clk_31 | UBlazeCDxB.UblazeSoPCxI/UblazeSoPCxB.UblazeCorexI/mdm/U0/Use_E2.BSCAN_I/Dbg_Capture_0                                                                                                                                                            | UBlazeCDxB.UblazeSoPCxI/UblazeSoPCxB.UblazeCorexI/mdm/U0/MDM_Core_I1/JTAG_CONTROL_I/sel_with_scan_reset24_out                                                                        |                1 |              2 |
| ~UBlazeCDxB.UblazeSoPCxI/UblazeSoPCxB.UblazeCorexI/mdm/U0/No_Dbg_Reg_Access.BUFG_DRCK/Dbg_Clk_31 | UBlazeCDxB.UblazeSoPCxI/UblazeSoPCxB.UblazeCorexI/mdm/U0/MDM_Core_I1/JTAG_CONTROL_I/Use_BSCAN.FDC_I/CE                                                                                                                                           | UBlazeCDxB.UblazeSoPCxI/UblazeSoPCxB.UblazeCorexI/mdm/U0/MDM_Core_I1/JTAG_CONTROL_I/Use_BSCAN.FDC_I/D_2                                                                              |                1 |              2 |
|  UBlazeCDxB.UblazeSoPCxI/UblazeSoPCxB.UblazeCorexI/mdm/U0/Use_E2.BSCAN_I/Dbg_Update_31           |                                                                                                                                                                                                                                                  | UBlazeCDxB.UblazeSoPCxI/UblazeSoPCxB.UblazeCorexI/mdm/U0/MDM_Core_I1/JTAG_CONTROL_I/Use_BSCAN.FDC_I/data_cmd_reset6_out                                                              |                1 |              2 |
|  UBlazeCDxB.UblazeSoPCxI/UblazeSoPCxB.UblazeCorexI/mdm/U0/Use_E2.BSCAN_I/Dbg_Update_31           | UBlazeCDxB.UblazeSoPCxI/UblazeSoPCxB.UblazeCorexI/mdm/U0/MDM_Core_I1/JTAG_CONTROL_I/Use_BSCAN.FDC_I/Debug_Rst_i0                                                                                                                                 |                                                                                                                                                                                      |                1 |              2 |
|  UBlazeCDxB.UblazeSoPCxI/UblazeSoPCxB.UblazeCorexI/ublaze_pll/inst/UserClkxCO                    |                                                                                                                                                                                                                                                  | UBlazeCDxB.UblazeSoPCxI/UblazeSoPCxB.UblazeCorexI/axi_timer/U0/AXI4_LITE_I/I_SLAVE_ATTACHMENT/I_DECODER/TCSR1_GENERATE[23].TCSR1_FF_I                                                |                1 |              2 |
|  UBlazeCDxB.UblazeSoPCxI/UblazeSoPCxB.UblazeCorexI/ublaze_pll/inst/UserClkxCO                    |                                                                                                                                                                                                                                                  | UBlazeCDxB.UblazeSoPCxI/UblazeSoPCxB.UblazeCorexI/axi_timer/U0/AXI4_LITE_I/I_SLAVE_ATTACHMENT/I_DECODER/TCSR0_GENERATE[23].TCSR0_FF_I                                                |                1 |              2 |
|  UBlazeCDxB.UblazeSoPCxI/UblazeSoPCxB.UblazeCorexI/ublaze_pll/inst/UserClkxCO                    |                                                                                                                                                                                                                                                  | UBlazeCDxB.UblazeSoPCxI/UblazeSoPCxB.UblazeCorexI/axi_timer/U0/TC_CORE_I/TIMER_CONTROL_I/R_0                                                                                         |                1 |              2 |
|  UBlazeCDxB.UblazeSoPCxI/UblazeSoPCxB.UblazeCorexI/ublaze_pll/inst/UserClkxCO                    |                                                                                                                                                                                                                                                  | UBlazeCDxB.UblazeSoPCxI/UblazeSoPCxB.UblazeCorexI/axi_timer/U0/TC_CORE_I/TIMER_CONTROL_I/READ_DONE1_I_i_1_n_0                                                                        |                1 |              2 |
|  UBlazeCDxB.UblazeSoPCxI/UblazeSoPCxB.UblazeCorexI/mdm/U0/Use_E2.BSCAN_I/Dbg_Update_31           | UBlazeCDxB.UblazeSoPCxI/UblazeSoPCxB.UblazeCorexI/ublaze_core/U0/MicroBlaze_Core_I/Performance.Core/Use_Debug_Logic.Master_Core.Debug_Perf/Control_Reg_En                                                                                        | UBlazeCDxB.UblazeSoPCxI/UblazeSoPCxB.UblazeCorexI/ublaze_core/U0/MicroBlaze_Core_I/Performance.Core/Use_Debug_Logic.Master_Core.Debug_Perf/start_single_step_reg_n_0                 |                1 |              2 |
|  UBlazeCDxB.UblazeSoPCxI/UblazeSoPCxB.UblazeCorexI/mdm/U0/Use_E2.BSCAN_I/Dbg_Update_31           | UBlazeCDxB.UblazeSoPCxI/UblazeSoPCxB.UblazeCorexI/ublaze_core/U0/MicroBlaze_Core_I/Performance.Core/Use_Debug_Logic.Master_Core.Debug_Perf/Control_Reg_En                                                                                        | UBlazeCDxB.UblazeSoPCxI/UblazeSoPCxB.UblazeCorexI/ublaze_core/U0/MicroBlaze_Core_I/Performance.Core/Use_Debug_Logic.Master_Core.Debug_Perf/Serial_Dbg_Intf.force_stop_cmd_i_reg_n_0  |                1 |              2 |
|  UBlazeCDxB.UblazeSoPCxI/UblazeSoPCxB.UblazeCorexI/ublaze_pll/inst/UserClkxCO                    |                                                                                                                                                                                                                                                  | UBlazeCDxB.UblazeSoPCxI/UblazeSoPCxB.UblazeCorexI/ublaze_core/U0/MicroBlaze_Core_I/Performance.Core/Use_Debug_Logic.Master_Core.Debug_Perf/capture_1                                 |                1 |              2 |
|  UBlazeCDxB.UblazeSoPCxI/UblazeSoPCxB.UblazeCorexI/mdm/U0/Use_E2.BSCAN_I/Dbg_Update_31           | UBlazeCDxB.UblazeSoPCxI/UblazeSoPCxB.UblazeCorexI/ublaze_core/U0/MicroBlaze_Core_I/Performance.Core/Use_Debug_Logic.Master_Core.Debug_Perf/Control_Reg_En                                                                                        | UBlazeCDxB.UblazeSoPCxI/UblazeSoPCxB.UblazeCorexI/ublaze_core/U0/MicroBlaze_Core_I/Performance.Core/Use_Debug_Logic.Master_Core.Debug_Perf/Serial_Dbg_Intf.continue_from_brk_reg_n_0 |                1 |              2 |
|  VgaHdmiCDxB.HdmixI/ClkVgaHdmi1024x600xG.ClkVgaHdmi1024x600xI/inst/ClkVgaxCO                     |                                                                                                                                                                                                                                                  | VgaHdmiCDxB.HdmixI/VgaxI/VgaControlerxI/SS[0]                                                                                                                                        |                1 |              2 |
|  VgaHdmiCDxB.HdmixI/ClkVgaHdmi1024x600xG.ClkVgaHdmi1024x600xI/inst/ClkVgaxCO                     |                                                                                                                                                                                                                                                  | VgaHdmiCDxB.HdmixI/VgaxI/VgaControlerxI/TmdsEncodedDataxDO_reg[8]_5[0]                                                                                                               |                1 |              2 |
|  VgaHdmiCDxB.HdmixI/ClkVgaHdmi1024x600xG.ClkVgaHdmi1024x600xI/inst/ClkVgaxCO                     |                                                                                                                                                                                                                                                  | VgaHdmiCDxB.HdmixI/VgaxI/VgaControlerxI/TmdsEncodedDataxDO_reg[8]_6[0]                                                                                                               |                1 |              2 |
|  UBlazeCDxB.UblazeSoPCxI/UblazeSoPCxB.UblazeCorexI/mdm/U0/Use_E2.BSCAN_I/Dbg_Update_31           | UBlazeCDxB.UblazeSoPCxI/UblazeSoPCxB.UblazeCorexI/ublaze_core/U0/MicroBlaze_Core_I/Performance.Core/Use_Debug_Logic.Master_Core.Debug_Perf/Command_Reg_En                                                                                        | UBlazeCDxB.UblazeSoPCxI/UblazeSoPCxB.UblazeCorexI/ublaze_core/U0/MicroBlaze_Core_I/Performance.Core/Use_Debug_Logic.Master_Core.Debug_Perf/command_reg_clear                         |                2 |              4 |
|  UBlazeCDxB.UblazeSoPCxI/UblazeSoPCxB.UblazeCorexI/ublaze_pll/inst/UserClkxCO                    | UBlazeCDxB.UblazeSoPCxI/UblazeSoPCxB.UblazeCorexI/ublaze_core/U0/MicroBlaze_Core_I/Performance.Core/Decode_I/Use_MuxCy[10].OF_Piperun_Stage/MUXCY_I/lopt_1                                                                                       |                                                                                                                                                                                      |                1 |              4 |
|  UBlazeCDxB.UblazeSoPCxI/UblazeSoPCxB.UblazeCorexI/mdm/U0/Use_E2.BSCAN_I/Dbg_Update_31           |                                                                                                                                                                                                                                                  |                                                                                                                                                                                      |                2 |              4 |
|  UBlazeCDxB.UblazeSoPCxI/UblazeSoPCxB.UblazeCorexI/ublaze_pll/inst/UserClkxCO                    |                                                                                                                                                                                                                                                  | FpgaUserToUBlazeCDCxB.FifoFlagColor1RegPortxI/U0/inst_fifo_gen/gconvfifo.rf/grf.rf/rstblk/rst_d2                                                                                     |                1 |              4 |
|  UBlazeCDxB.UblazeSoPCxI/UblazeSoPCxB.UblazeCorexI/ublaze_pll/inst/UserClkxCO                    |                                                                                                                                                                                                                                                  | UBlazeCDxB.UblazeSoPCxI/UblazeSoPCxB.UblazeCorexI/mdm/U0/MDM_Core_I1/Use_Uart.clear_Ext_BRK_reg_0                                                                                    |                1 |              6 |
|  UBlazeCDxB.UblazeSoPCxI/UblazeSoPCxB.UblazeCorexI/ublaze_pll/inst/UserClkxCO                    | UBlazeCDxB.UblazeSoPCxI/UblazeSoPCxB.UblazeCorexI/axi_intc/U0/AXI_LITE_IPIF_I/I_SLAVE_ATTACHMENT/s_axi_rresp_i                                                                                                                                   | UBlazeCDxB.UblazeSoPCxI/UblazeSoPCxB.UblazeCorexI/axi_intc/U0/AXI_LITE_IPIF_I/I_SLAVE_ATTACHMENT/rst                                                                                 |                1 |              6 |
|  UBlazeCDxB.UblazeSoPCxI/UblazeSoPCxB.UblazeCorexI/mdm/U0/Use_E2.BSCAN_I/Dbg_Update_31           | UBlazeCDxB.UblazeSoPCxI/UblazeSoPCxB.UblazeCorexI/mdm/U0/MDM_Core_I1/MDM_SEL                                                                                                                                                                     | UBlazeCDxB.UblazeSoPCxI/UblazeSoPCxB.UblazeCorexI/mdm/U0/Use_E2.BSCAN_I/AR[0]                                                                                                        |                1 |              8 |
|  UBlazeCDxB.UblazeSoPCxI/UblazeSoPCxB.UblazeCorexI/ublaze_pll/inst/UserClkxCO                    | UBlazeCDxB.UblazeSoPCxI/UblazeSoPCxB.UblazeCorexI/axi_timer/U0/AXI4_LITE_I/I_SLAVE_ATTACHMENT/I_DECODER/pair0_Select                                                                                                                             | UBlazeCDxB.UblazeSoPCxI/UblazeSoPCxB.UblazeCorexI/axi_timer/U0/TC_CORE_I/GEN_SECOND_TIMER.COUNTER_1_I/COUNTER_I/INFERRED_GEN.icount_out_reg[31]_0                                    |                2 |              8 |
| ~UBlazeCDxB.UblazeSoPCxI/UblazeSoPCxB.UblazeCorexI/mdm/U0/Use_E2.BSCAN_I/Dbg_Update_31           |                                                                                                                                                                                                                                                  | UBlazeCDxB.UblazeSoPCxI/UblazeSoPCxB.UblazeCorexI/mdm/U0/Use_E2.BSCAN_I/AR[0]                                                                                                        |                1 |              8 |
|  UBlazeCDxB.UblazeSoPCxI/UblazeSoPCxB.UblazeCorexI/ublaze_pll/inst/UserClkxCO                    |                                                                                                                                                                                                                                                  | UBlazeCDxB.UblazeSoPCxI/UblazeSoPCxB.UblazeCorexI/axi_gpio/U0/AXI_LITE_IPIF_I/I_SLAVE_ATTACHMENT/clear                                                                               |                1 |              8 |
|  UBlazeCDxB.UblazeSoPCxI/UblazeSoPCxB.UblazeCorexI/ublaze_pll/inst/UserClkxCO                    | UBlazeCDxB.UblazeSoPCxI/UblazeSoPCxB.UblazeCorexI/axi_timer/U0/AXI4_LITE_I/I_SLAVE_ATTACHMENT/bus2ip_addr_i[4]_i_1_n_0                                                                                                                           | UBlazeCDxB.UblazeSoPCxI/UblazeSoPCxB.UblazeCorexI/axi_timer/U0/AXI4_LITE_I/I_SLAVE_ATTACHMENT/rst                                                                                    |                1 |              8 |
|  UBlazeCDxB.UblazeSoPCxI/UblazeSoPCxB.UblazeCorexI/ublaze_pll/inst/UserClkxCO                    | UBlazeCDxB.UblazeSoPCxI/UblazeSoPCxB.UblazeCorexI/mdm/U0/MDM_Core_I1/JTAG_CONTROL_I/Use_UART.RX_FIFO_I/Using_FPGA.Native                                                                                                                         | UBlazeCDxB.UblazeSoPCxI/UblazeSoPCxB.UblazeCorexI/mdm/U0/MDM_Core_I1/Use_Uart.reset_RX_FIFO_reg_n_0                                                                                  |                1 |              8 |
|  UBlazeCDxB.UblazeSoPCxI/UblazeSoPCxB.UblazeCorexI/mdm/U0/No_Dbg_Reg_Access.BUFG_DRCK/Dbg_Clk_31 | UBlazeCDxB.UblazeSoPCxI/UblazeSoPCxB.UblazeCorexI/mdm/U0/MDM_Core_I1/p_5_out                                                                                                                                                                     | UBlazeCDxB.UblazeSoPCxI/UblazeSoPCxB.UblazeCorexI/mdm/U0/Use_E2.BSCAN_I/AR[0]                                                                                                        |                1 |              8 |
|  UBlazeCDxB.UblazeSoPCxI/UblazeSoPCxB.UblazeCorexI/ublaze_pll/inst/UserClkxCO                    |                                                                                                                                                                                                                                                  | UBlazeCDxB.UblazeSoPCxI/UblazeSoPCxB.UblazeCorexI/axi_intc/U0/AXI_LITE_IPIF_I/I_SLAVE_ATTACHMENT/clear                                                                               |                2 |              8 |
|  UBlazeCDxB.UblazeSoPCxI/UblazeSoPCxB.UblazeCorexI/ublaze_pll/inst/UserClkxCO                    | UBlazeCDxB.UblazeSoPCxI/UblazeSoPCxB.UblazeCorexI/mdm/U0/MDM_Core_I1/JTAG_CONTROL_I/Use_UART.TX_FIFO_I/Using_FPGA.Native                                                                                                                         | UBlazeCDxB.UblazeSoPCxI/UblazeSoPCxB.UblazeCorexI/mdm/U0/MDM_Core_I1/Use_Uart.reset_TX_FIFO_reg_n_0                                                                                  |                1 |              8 |
|  UBlazeCDxB.UblazeSoPCxI/UblazeSoPCxB.UblazeCorexI/ublaze_pll/inst/UserClkxCO                    | UBlazeCDxB.UblazeSoPCxI/UblazeSoPCxB.UblazeCorexI/mdm/U0/Use_AXI_IPIF.AXI_LITE_IPIF_I/I_SLAVE_ATTACHMENT/start2                                                                                                                                  | UBlazeCDxB.UblazeSoPCxI/UblazeSoPCxB.UblazeCorexI/mdm/U0/Use_AXI_IPIF.AXI_LITE_IPIF_I/I_SLAVE_ATTACHMENT/I_DECODER/cs_ce_clr                                                         |                1 |              8 |
|  UBlazeCDxB.UblazeSoPCxI/UblazeSoPCxB.UblazeCorexI/ublaze_pll/inst/UserClkxCO                    |                                                                                                                                                                                                                                                  | UBlazeCDxB.UblazeSoPCxI/UblazeSoPCxB.UblazeCorexI/ublaze_core/U0/MicroBlaze_Core_I/Performance.Core/Decode_I/flush_pipe                                                              |                3 |              8 |
|  UBlazeCDxB.UblazeSoPCxI/UblazeSoPCxB.UblazeCorexI/ublaze_pll/inst/UserClkxCO                    | UBlazeCDxB.UblazeSoPCxI/UblazeSoPCxB.UblazeCorexI/axi_gpio/U0/AXI_LITE_IPIF_I/I_SLAVE_ATTACHMENT/bus2ip_addr_i[8]_i_1_n_0                                                                                                                        | UBlazeCDxB.UblazeSoPCxI/UblazeSoPCxB.UblazeCorexI/axi_gpio/U0/AXI_LITE_IPIF_I/I_SLAVE_ATTACHMENT/SR[0]                                                                               |                1 |              8 |
|  UBlazeCDxB.UblazeSoPCxI/UblazeSoPCxB.UblazeCorexI/ublaze_pll/inst/UserClkxCO                    | UBlazeCDxB.UblazeSoPCxI/UblazeSoPCxB.UblazeCorexI/axi_gpio/U0/AXI_LITE_IPIF_I/I_SLAVE_ATTACHMENT/start2                                                                                                                                          | UBlazeCDxB.UblazeSoPCxI/UblazeSoPCxB.UblazeCorexI/axi_gpio/U0/AXI_LITE_IPIF_I/I_SLAVE_ATTACHMENT/I_DECODER/cs_ce_clr                                                                 |                1 |              8 |
|  UBlazeCDxB.UblazeSoPCxI/UblazeSoPCxB.UblazeCorexI/ublaze_pll/inst/UserClkxCO                    | UBlazeCDxB.UblazeSoPCxI/UblazeSoPCxB.UblazeCorexI/ublaze_core/U0/MicroBlaze_Core_I/Performance.Core/Decode_I/wb_Halted                                                                                                                           | UBlazeCDxB.UblazeSoPCxI/UblazeSoPCxB.UblazeCorexI/ublaze_core/U0/MicroBlaze_Core_I/sync_reset                                                                                        |                2 |             10 |
|  UBlazeCDxB.UblazeSoPCxI/UblazeSoPCxB.UblazeCorexI/ublaze_pll/inst/UserClkxCO                    |                                                                                                                                                                                                                                                  | UBlazeCDxB.UblazeSoPCxI/UblazeSoPCxB.UblazeCorexI/ublaze_sys_reset/U0/EXT_LPF/lpf_int                                                                                                |                2 |             10 |
|  UBlazeCDxB.UblazeSoPCxI/UblazeSoPCxB.UblazeCorexI/mdm/U0/Use_E2.BSCAN_I/Dbg_Update_31           | UBlazeCDxB.UblazeSoPCxI/UblazeSoPCxB.UblazeCorexI/ublaze_core/U0/MicroBlaze_Core_I/Performance.Core/Use_Debug_Logic.Master_Core.Debug_Perf/Control_Reg_En                                                                                        |                                                                                                                                                                                      |                2 |             10 |
|  UBlazeCDxB.UblazeSoPCxI/UblazeSoPCxB.UblazeCorexI/ublaze_pll/inst/UserClkxCO                    |                                                                                                                                                                                                                                                  | UBlazeCDxB.UblazeSoPCxI/UblazeSoPCxB.UblazeCorexI/axi_timer/U0/AXI4_LITE_I/I_SLAVE_ATTACHMENT/INCLUDE_DPHASE_TIMER.dpto_cnt[5]_i_1_n_0                                               |                2 |             12 |
|  UBlazeCDxB.UblazeSoPCxI/UblazeSoPCxB.UblazeCorexI/mdm/U0/No_Dbg_Reg_Access.BUFG_DRCK/Dbg_Clk_31 | UBlazeCDxB.UblazeSoPCxI/UblazeSoPCxB.UblazeCorexI/mdm/U0/MDM_Core_I1/JTAG_CONTROL_I/Use_BSCAN.FDC_I/Use_Serial_Unified_Completion.sample_1_reg[10][0]                                                                                            |                                                                                                                                                                                      |                1 |             12 |
|  UBlazeCDxB.UblazeSoPCxI/UblazeSoPCxB.UblazeCorexI/ublaze_pll/inst/UserClkxCO                    |                                                                                                                                                                                                                                                  | UBlazeCDxB.UblazeSoPCxI/UblazeSoPCxB.UblazeCorexI/mandelbrot_regbank/U0/Axi4LiteSlIfxB.Axi4LiteWrChanSlIfxI/SAxiAWReadyxS_reg_0                                                      |                3 |             12 |
|  UBlazeCDxB.UblazeSoPCxI/UblazeSoPCxB.UblazeCorexI/mdm/U0/No_Dbg_Reg_Access.BUFG_DRCK/Dbg_Clk_31 | UBlazeCDxB.UblazeSoPCxI/UblazeSoPCxB.UblazeCorexI/mdm/U0/Use_E2.BSCAN_I/Use_Serial_Unified_Completion.count_reg[5][0]                                                                                                                            |                                                                                                                                                                                      |                3 |             12 |
|  UBlazeCDxB.UblazeSoPCxI/UblazeSoPCxB.UblazeCorexI/mdm/U0/No_Dbg_Reg_Access.BUFG_DRCK/Dbg_Clk_31 | UBlazeCDxB.UblazeSoPCxI/UblazeSoPCxB.UblazeCorexI/mdm/U0/Use_E2.BSCAN_I/Use_Serial_Unified_Completion.completion_status_reg[10][0]                                                                                                               |                                                                                                                                                                                      |                1 |             12 |
|  FpgaUserCDxB.ClkMandelbrotxI/inst/ClkMandelxCO                                                  |                                                                                                                                                                                                                                                  |                                                                                                                                                                                      |                2 |             12 |
|  UBlazeCDxB.UblazeSoPCxI/UblazeSoPCxB.UblazeCorexI/ublaze_pll/inst/UserClkxCO                    | UBlazeCDxB.UblazeSoPCxI/UblazeSoPCxB.UblazeCorexI/ublaze_sys_reset/U0/SEQ/seq_cnt_en                                                                                                                                                             | UBlazeCDxB.UblazeSoPCxI/UblazeSoPCxB.UblazeCorexI/ublaze_sys_reset/U0/SEQ/SEQ_COUNTER/clear                                                                                          |                1 |             12 |
|  UBlazeCDxB.UblazeSoPCxI/UblazeSoPCxB.UblazeCorexI/ublaze_pll/inst/UserClkxCO                    | UBlazeCDxB.UblazeSoPCxI/UblazeSoPCxB.UblazeCorexI/axi_timer/U0/AXI4_LITE_I/I_SLAVE_ATTACHMENT/start2                                                                                                                                             | UBlazeCDxB.UblazeSoPCxI/UblazeSoPCxB.UblazeCorexI/axi_timer/U0/AXI4_LITE_I/I_SLAVE_ATTACHMENT/I_DECODER/cs_ce_clr                                                                    |                2 |             14 |
|  FpgaUserCDxB.ClkMandelbrotxI/inst/ClkMandelxCO                                                  |                                                                                                                                                                                                                                                  | FpgaUserCDxB.ImageGeneratorxI/complexNum/AR[0]                                                                                                                                       |                6 |             14 |
|  FpgaUserCDxB.ClkMandelbrotxI/inst/ClkMandelxCO                                                  | FpgaUserCDxB.ImageGeneratorxI/mandelbrot/ready_s                                                                                                                                                                                                 | FpgaUserCDxB.ImageGeneratorxI/mandelbrot/iterations_s[6]_i_1_n_0                                                                                                                     |                6 |             14 |
|  UBlazeCDxB.UblazeSoPCxI/UblazeSoPCxB.UblazeCorexI/ublaze_pll/inst/UserClkxCO                    | UBlazeCDxB.UblazeSoPCxI/UblazeSoPCxB.UblazeCorexI/axi_timer/U0/AXI4_LITE_I/I_SLAVE_ATTACHMENT/I_DECODER/bus2ip_wrce[0]                                                                                                                           | UBlazeCDxB.UblazeSoPCxI/UblazeSoPCxB.UblazeCorexI/axi_timer/U0/TC_CORE_I/GEN_SECOND_TIMER.COUNTER_1_I/COUNTER_I/INFERRED_GEN.icount_out_reg[31]_0                                    |                1 |             16 |
|  UBlazeCDxB.UblazeSoPCxI/UblazeSoPCxB.UblazeCorexI/ublaze_pll/inst/UserClkxCO                    | UBlazeCDxB.UblazeSoPCxI/UblazeSoPCxB.UblazeCorexI/axi_gpio/U0/AXI_LITE_IPIF_I/I_SLAVE_ATTACHMENT/I_DECODER/E[0]                                                                                                                                  | UBlazeCDxB.UblazeSoPCxI/UblazeSoPCxB.UblazeCorexI/axi_gpio/U0/AXI_LITE_IPIF_I/I_SLAVE_ATTACHMENT/SR[0]                                                                               |                2 |             16 |
|  UBlazeCDxB.UblazeSoPCxI/UblazeSoPCxB.UblazeCorexI/ublaze_pll/inst/UserClkxCO                    | UBlazeCDxB.UblazeSoPCxI/UblazeSoPCxB.UblazeCorexI/axi_intc/U0/AXI_LITE_IPIF_I/I_SLAVE_ATTACHMENT/bus2ip_addr_i[8]_i_1_n_0                                                                                                                        | UBlazeCDxB.UblazeSoPCxI/UblazeSoPCxB.UblazeCorexI/axi_intc/U0/AXI_LITE_IPIF_I/I_SLAVE_ATTACHMENT/rst                                                                                 |                1 |             16 |
|  UBlazeCDxB.UblazeSoPCxI/UblazeSoPCxB.UblazeCorexI/ublaze_pll/inst/UserClkxCO                    | UBlazeCDxB.UblazeSoPCxI/UblazeSoPCxB.UblazeCorexI/mdm/U0/Use_AXI_IPIF.AXI_LITE_IPIF_I/I_SLAVE_ATTACHMENT/s_axi_rresp_i                                                                                                                           | UBlazeCDxB.UblazeSoPCxI/UblazeSoPCxB.UblazeCorexI/mdm/U0/Use_AXI_IPIF.AXI_LITE_IPIF_I/I_SLAVE_ATTACHMENT/rst                                                                         |                2 |             16 |
|  UBlazeCDxB.UblazeSoPCxI/UblazeSoPCxB.UblazeCorexI/ublaze_pll/inst/UserClkxCO                    | UBlazeCDxB.UblazeSoPCxI/UblazeSoPCxB.UblazeCorexI/mdm/U0/MDM_Core_I1/JTAG_CONTROL_I/Use_UART.TX_FIFO_I/Addr_Counters[2].FDRE_I/CI                                                                                                                |                                                                                                                                                                                      |                3 |             16 |
|  UBlazeCDxB.UblazeSoPCxI/UblazeSoPCxB.UblazeCorexI/mdm/U0/Use_E2.BSCAN_I/Dbg_Update_31           | UBlazeCDxB.UblazeSoPCxI/UblazeSoPCxB.UblazeCorexI/mdm/U0/MDM_Core_I1/JTAG_CONTROL_I/Use_BSCAN.FDC_I/command_1_reg[7][0]                                                                                                                          |                                                                                                                                                                                      |                1 |             16 |
|  UBlazeCDxB.UblazeSoPCxI/UblazeSoPCxB.UblazeCorexI/mdm/U0/No_Dbg_Reg_Access.BUFG_DRCK/Dbg_Clk_31 | UBlazeCDxB.UblazeSoPCxI/UblazeSoPCxB.UblazeCorexI/mdm/U0/Use_E2.BSCAN_I/Use_UART.tdo_reg_reg[7][0]                                                                                                                                               |                                                                                                                                                                                      |                2 |             16 |
|  UBlazeCDxB.UblazeSoPCxI/UblazeSoPCxB.UblazeCorexI/ublaze_pll/inst/UserClkxCO                    | UBlazeCDxB.UblazeSoPCxI/UblazeSoPCxB.UblazeCorexI/mdm/U0/MDM_Core_I1/JTAG_CONTROL_I/Use_UART.RX_FIFO_I/Addr_Counters[2].FDRE_I/CI                                                                                                                |                                                                                                                                                                                      |                2 |             16 |
|  UBlazeCDxB.UblazeSoPCxI/UblazeSoPCxB.UblazeCorexI/mdm/U0/No_Dbg_Reg_Access.BUFG_DRCK/Dbg_Clk_31 | UBlazeCDxB.UblazeSoPCxI/UblazeSoPCxB.UblazeCorexI/ublaze_core/U0/MicroBlaze_Core_I/Performance.Core/Use_Debug_Logic.Master_Core.Debug_Perf/Using_PC_Breakpoints.All_PC_Brks[0].Serial_Interface_1.address_hit_I/Compare[0].SRLC16E_I/which_pc__0 |                                                                                                                                                                                      |                7 |             16 |
| ~UBlazeCDxB.UblazeSoPCxI/UblazeSoPCxB.UblazeCorexI/mdm/U0/Use_E2.BSCAN_I/Dbg_Update_31           | UBlazeCDxB.UblazeSoPCxI/UblazeSoPCxB.UblazeCorexI/mdm/U0/MDM_Core_I1/JTAG_CONTROL_I/Use_BSCAN.command[0]_i_1_n_0                                                                                                                                 |                                                                                                                                                                                      |                2 |             16 |
|  UBlazeCDxB.UblazeSoPCxI/UblazeSoPCxB.UblazeCorexI/mdm/U0/No_Dbg_Reg_Access.BUFG_DRCK/Dbg_Clk_31 | UBlazeCDxB.UblazeSoPCxI/UblazeSoPCxB.UblazeCorexI/mdm/U0/MDM_Core_I1/JTAG_CONTROL_I/tdi_shifter0                                                                                                                                                 |                                                                                                                                                                                      |                2 |             16 |
|  UBlazeCDxB.UblazeSoPCxI/UblazeSoPCxB.UblazeCorexI/ublaze_pll/inst/UserClkxCO                    |                                                                                                                                                                                                                                                  | UBlazeCDxB.UblazeSoPCxI/UblazeSoPCxB.UblazeCorexI/axi_gpio/U0/gpio_core_1/Read_Reg_Rst__0                                                                                            |                1 |             16 |
|  UBlazeCDxB.UblazeSoPCxI/UblazeSoPCxB.UblazeCorexI/mdm/U0/No_Dbg_Reg_Access.BUFG_DRCK/Dbg_Clk_31 | UBlazeCDxB.UblazeSoPCxI/UblazeSoPCxB.UblazeCorexI/mdm/U0/MDM_Core_I1/JTAG_CONTROL_I/Use_BSCAN.SYNC_FDRE/E[0]                                                                                                                                     |                                                                                                                                                                                      |                2 |             16 |
|  UBlazeCDxB.UblazeSoPCxI/UblazeSoPCxB.UblazeCorexI/ublaze_pll/inst/UserClkxCO                    | UBlazeCDxB.UblazeSoPCxI/UblazeSoPCxB.UblazeCorexI/axi_gpio/U0/AXI_LITE_IPIF_I/I_SLAVE_ATTACHMENT/s_axi_rresp_i                                                                                                                                   | UBlazeCDxB.UblazeSoPCxI/UblazeSoPCxB.UblazeCorexI/axi_gpio/U0/AXI_LITE_IPIF_I/I_SLAVE_ATTACHMENT/SR[0]                                                                               |                2 |             18 |
|  UBlazeCDxB.UblazeSoPCxI/UblazeSoPCxB.UblazeCorexI/ublaze_pll/inst/UserClkxCO                    | UBlazeCDxB.UblazeSoPCxI/UblazeSoPCxB.UblazeCorexI/axi_timer/U0/AXI4_LITE_I/I_SLAVE_ATTACHMENT/I_DECODER/bus2ip_wrce[1]                                                                                                                           | UBlazeCDxB.UblazeSoPCxI/UblazeSoPCxB.UblazeCorexI/axi_timer/U0/TC_CORE_I/GEN_SECOND_TIMER.COUNTER_1_I/COUNTER_I/INFERRED_GEN.icount_out_reg[31]_0                                    |                3 |             18 |
|  UBlazeCDxB.UblazeSoPCxI/UblazeSoPCxB.UblazeCorexI/ublaze_pll/inst/UserClkxCO                    |                                                                                                                                                                                                                                                  | UBlazeCDxB.UblazeSoPCxI/UblazeSoPCxB.UblazeCorexI/mdm/U0/Use_AXI_IPIF.AXI_LITE_IPIF_I/I_SLAVE_ATTACHMENT/rst                                                                         |                4 |             20 |
|  UBlazeCDxB.UblazeSoPCxI/UblazeSoPCxB.UblazeCorexI/ublaze_pll/inst/UserClkxCO                    |                                                                                                                                                                                                                                                  | UBlazeCDxB.UblazeSoPCxI/UblazeSoPCxB.UblazeCorexI/axi_intc/U0/INTC_CORE_I/SR[0]                                                                                                      |                4 |             20 |
|  UBlazeCDxB.UblazeSoPCxI/UblazeSoPCxB.UblazeCorexI/mdm/U0/No_Dbg_Reg_Access.BUFG_DRCK/Dbg_Clk_31 | UBlazeCDxB.UblazeSoPCxI/UblazeSoPCxB.UblazeCorexI/mdm/U0/MDM_Core_I1/JTAG_CONTROL_I/Use_BSCAN.FDC_I/E[0]                                                                                                                                         |                                                                                                                                                                                      |                4 |             20 |
|  UBlazeCDxB.UblazeSoPCxI/UblazeSoPCxB.UblazeCorexI/ublaze_pll/inst/UserClkxCO                    |                                                                                                                                                                                                                                                  | UBlazeCDxB.UblazeSoPCxI/UblazeSoPCxB.UblazeCorexI/axi_timer/U0/AXI4_LITE_I/I_SLAVE_ATTACHMENT/rst                                                                                    |                5 |             22 |
|  UBlazeCDxB.UblazeSoPCxI/UblazeSoPCxB.UblazeCorexI/ublaze_pll/inst/UserClkxCO                    |                                                                                                                                                                                                                                                  | UBlazeCDxB.UblazeSoPCxI/UblazeSoPCxB.UblazeCorexI/axi_intc/U0/AXI_LITE_IPIF_I/I_SLAVE_ATTACHMENT/rst                                                                                 |                6 |             22 |
|  UBlazeCDxB.UblazeSoPCxI/UblazeSoPCxB.UblazeCorexI/ublaze_pll/inst/UserClkxCO                    |                                                                                                                                                                                                                                                  | UBlazeCDxB.UblazeSoPCxI/UblazeSoPCxB.UblazeCorexI/axi_timer/U0/TC_CORE_I/GEN_SECOND_TIMER.COUNTER_1_I/COUNTER_I/INFERRED_GEN.icount_out_reg[31]_0                                    |                4 |             24 |
|  UBlazeCDxB.UblazeSoPCxI/UblazeSoPCxB.UblazeCorexI/ublaze_pll/inst/UserClkxCO                    | UBlazeCDxB.UblazeSoPCxI/UblazeSoPCxB.UblazeCorexI/axi_interconnect/xbar/inst/gen_sasd.crossbar_sasd_0/addr_arbiter_inst/m_axi_awvalid[4]                                                                                                         | UBlazeCDxB.UblazeSoPCxI/UblazeSoPCxB.UblazeCorexI/mandelbrot_regbank/U0/Axi4LiteSlIfxB.Axi4LiteWrChanSlIfxI/SAxiAWReadyxS_reg_0                                                      |                4 |             24 |
|  UBlazeCDxB.UblazeSoPCxI/UblazeSoPCxB.UblazeCorexI/ublaze_pll/inst/UserClkxCO                    |                                                                                                                                                                                                                                                  | UBlazeCDxB.UblazeSoPCxI/UblazeSoPCxB.UblazeCorexI/axi_interconnect/xbar/inst/gen_sasd.crossbar_sasd_0/addr_arbiter_inst/SR[0]                                                        |                6 |             26 |
|  VgaHdmiCDxB.HdmixI/ClkVgaHdmi1024x600xG.ClkVgaHdmi1024x600xI/inst/ClkVgaxCO                     | FpgaUserToUBlazeCDCxB.FifoFlagColor1RegPortxI/U0/inst_fifo_gen/gconvfifo.rf/grf.rf/gntv_or_sync_fifo.gl0.rd/gras.rsts/E[0]                                                                                                                       | VgaHdmiCDxB.HdmixI/VgaxI/VgaControlerxI/AR[0]                                                                                                                                        |                2 |             28 |
|  VgaHdmiCDxB.HdmixI/ClkVgaHdmi1024x600xG.ClkVgaHdmi1024x600xI/inst/ClkVgaxCO                     | VgaHdmiCDxB.HdmixI/VgaxI/VgaControlerxI/VCountxD                                                                                                                                                                                                 | VgaHdmiCDxB.HdmixI/VgaxI/VgaControlerxI/AR[0]                                                                                                                                        |                5 |             32 |
|  UBlazeCDxB.UblazeSoPCxI/UblazeSoPCxB.UblazeCorexI/ublaze_pll/inst/UserClkxCO                    | UBlazeCDxB.UblazeSoPCxI/UblazeSoPCxB.UblazeCorexI/ublaze_core/U0/MicroBlaze_Core_I/Performance.Core/Decode_I/PreFetch_Buffer_I1/Instruction_Prefetch_Mux[4].Gen_Instr_DFF/imm_reg_reg[15][0]                                                     | UBlazeCDxB.UblazeSoPCxI/UblazeSoPCxB.UblazeCorexI/ublaze_core/U0/MicroBlaze_Core_I/sync_reset                                                                                        |                8 |             32 |
|  VgaHdmiCDxB.HdmixI/ClkVgaHdmi1024x600xG.ClkVgaHdmi1024x600xI/inst/ClkVgaxCO                     |                                                                                                                                                                                                                                                  | VgaHdmiCDxB.HdmixI/VgaxI/VgaControlerxI/TmdsEncodedDataxDO_reg[5]                                                                                                                    |               11 |             34 |
|  UBlazeCDxB.UblazeSoPCxI/UblazeSoPCxB.UblazeCorexI/ublaze_pll/inst/UserClkxCO                    | UBlazeCDxB.UblazeSoPCxI/UblazeSoPCxB.UblazeCorexI/axi_intc/U0/AXI_LITE_IPIF_I/I_SLAVE_ATTACHMENT/start2                                                                                                                                          | UBlazeCDxB.UblazeSoPCxI/UblazeSoPCxB.UblazeCorexI/axi_intc/U0/AXI_LITE_IPIF_I/I_SLAVE_ATTACHMENT/I_DECODER/cs_ce_clr                                                                 |                6 |             34 |
|  UBlazeCDxB.UblazeSoPCxI/UblazeSoPCxB.UblazeCorexI/ublaze_pll/inst/UserClkxCO                    | UBlazeCDxB.UblazeSoPCxI/UblazeSoPCxB.UblazeCorexI/ublaze_core/U0/MicroBlaze_Core_I/Performance.Core/mem_databus_ready_sel_carry_or/MUXCY_I/lopt_4                                                                                                | UBlazeCDxB.UblazeSoPCxI/UblazeSoPCxB.UblazeCorexI/ublaze_core/U0/MicroBlaze_Core_I/sync_reset                                                                                        |                6 |             42 |
|  VgaHdmiCDxB.HdmixI/ClkVgaHdmi1024x600xG.ClkVgaHdmi1024x600xI/inst/ClkVgaxCO                     |                                                                                                                                                                                                                                                  | VgaHdmiCDxB.HdmixI/VgaxI/VgaControlerxI/AR[0]                                                                                                                                        |                9 |             42 |
|  UBlazeCDxB.UblazeSoPCxI/UblazeSoPCxB.UblazeCorexI/ublaze_pll/inst/UserClkxCO                    | FpgaUserToUBlazeCDCxB.FifoFlagColor1RegPortxI/U0/inst_fifo_gen/gconvfifo.rf/grf.rf/gntv_or_sync_fifo.gl0.wr/gwas.wsts/E[0]                                                                                                                       | UBlazeCDxB.UblazeSoPCxI/UBlazePllNotLockedxS                                                                                                                                         |                5 |             42 |
|  UBlazeCDxB.UblazeSoPCxI/UblazeSoPCxB.UblazeCorexI/mdm/U0/No_Dbg_Reg_Access.BUFG_DRCK/Dbg_Clk_31 |                                                                                                                                                                                                                                                  | UBlazeCDxB.UblazeSoPCxI/UblazeSoPCxB.UblazeCorexI/mdm/U0/Use_E2.BSCAN_I/shift_n_reset1_out                                                                                           |                4 |             46 |
|  UBlazeCDxB.UblazeSoPCxI/UblazeSoPCxB.UblazeCorexI/ublaze_pll/inst/UserClkxCO                    |                                                                                                                                                                                                                                                  | UBlazeCDxB.UblazeSoPCxI/UblazeSoPCxB.UblazeCorexI/axi_gpio/U0/AXI_LITE_IPIF_I/I_SLAVE_ATTACHMENT/SR[0]                                                                               |                7 |             48 |
|  FpgaUserCDxB.ClkMandelbrotxI/inst/ClkMandelxCO                                                  | FpgaUserCDxB.ImageGeneratorxI/complexNum/c_im_i                                                                                                                                                                                                  | FpgaUserCDxB.ImageGeneratorxI/complexNum/AR[0]                                                                                                                                       |                8 |             50 |
|  FpgaUserCDxB.ClkMandelbrotxI/inst/ClkMandelxCO                                                  | FpgaUserCDxB.ImageGeneratorxI/mandelbrot/E[0]                                                                                                                                                                                                    | FpgaUserCDxB.ImageGeneratorxI/complexNum/AR[0]                                                                                                                                       |                7 |             50 |
|  UBlazeCDxB.UblazeSoPCxI/UblazeSoPCxB.UblazeCorexI/ublaze_pll/inst/UserClkxCO                    | UBlazeCDxB.UblazeSoPCxI/UblazeSoPCxB.UblazeCorexI/axi_interconnect/xbar/inst/gen_sasd.crossbar_sasd_0/addr_arbiter_inst/p_0_in1_in                                                                                                               | UBlazeCDxB.UblazeSoPCxI/UblazeSoPCxB.UblazeCorexI/axi_interconnect/xbar/inst/gen_sasd.crossbar_sasd_0/addr_arbiter_inst/SR[0]                                                        |                9 |             64 |
|  UBlazeCDxB.UblazeSoPCxI/UblazeSoPCxB.UblazeCorexI/ublaze_pll/inst/UserClkxCO                    | UBlazeCDxB.UblazeSoPCxI/UBlazeCDxB.RegBankxB.FlagColor2RegPortxDP_reg[0][0]                                                                                                                                                                      | UBlazeCDxB.UblazeSoPCxI/UBlazePllNotLockedxS                                                                                                                                         |                6 |             64 |
|  UBlazeCDxB.UblazeSoPCxI/UblazeSoPCxB.UblazeCorexI/ublaze_pll/inst/UserClkxCO                    | UBlazeCDxB.UblazeSoPCxI/UblazeSoPCxB.UblazeCorexI/ublaze_core/U0/MicroBlaze_Core_I/Performance.Core/mem_databus_ready_sel_carry_or/MUXCY_I/lopt_4                                                                                                | UBlazeCDxB.UblazeSoPCxI/UblazeSoPCxB.UblazeCorexI/ublaze_core/U0/MicroBlaze_Core_I/Performance.Core/Decode_I/SR[0]                                                                   |                8 |             64 |
|  UBlazeCDxB.UblazeSoPCxI/UblazeSoPCxB.UblazeCorexI/ublaze_pll/inst/UserClkxCO                    | UBlazeCDxB.UblazeSoPCxI/UblazeSoPCxB.UblazeCorexI/ublaze_core/U0/MicroBlaze_Core_I/Performance.Core/mem_databus_ready_sel_carry_or/MUXCY_I/lopt_4                                                                                                |                                                                                                                                                                                      |                6 |             64 |
|  UBlazeCDxB.UblazeSoPCxI/UblazeSoPCxB.UblazeCorexI/ublaze_pll/inst/UserClkxCO                    | UBlazeCDxB.UblazeSoPCxI/UblazeSoPCxB.UblazeCorexI/ublaze_core/U0/MicroBlaze_Core_I/Performance.Core/Use_Debug_Logic.Master_Core.Debug_Perf/data_rd_reg[0]_i_1_n_0                                                                                | UBlazeCDxB.UblazeSoPCxI/UblazeSoPCxB.UblazeCorexI/ublaze_core/U0/MicroBlaze_Core_I/sync_reset                                                                                        |                9 |             64 |
|  UBlazeCDxB.UblazeSoPCxI/UblazeSoPCxB.UblazeCorexI/ublaze_pll/inst/UserClkxCO                    | UBlazeCDxB.UblazeSoPCxI/UblazeSoPCxB.UblazeCorexI/ublaze_core/U0/MicroBlaze_Core_I/Performance.Core/Decode_I/Use_MuxCy[3].OF_Piperun_Stage/MUXCY_I/mem_pc_i_reg[0][0]                                                                            | UBlazeCDxB.UblazeSoPCxI/UblazeSoPCxB.UblazeCorexI/ublaze_core/U0/MicroBlaze_Core_I/sync_reset                                                                                        |                6 |             64 |
|  UBlazeCDxB.UblazeSoPCxI/UblazeSoPCxB.UblazeCorexI/ublaze_pll/inst/UserClkxCO                    | UBlazeCDxB.UblazeSoPCxI/UblazeSoPCxB.UblazeCorexI/ublaze_core/U0/MicroBlaze_Core_I/Performance.Core/Decode_I/Use_MuxCy[2].OF_Piperun_Stage/MUXCY_I/lopt_1                                                                                        | UBlazeCDxB.UblazeSoPCxI/UblazeSoPCxB.UblazeCorexI/ublaze_core/U0/MicroBlaze_Core_I/Performance.Core/Decode_I/R                                                                       |               11 |             64 |
|  UBlazeCDxB.UblazeSoPCxI/UblazeSoPCxB.UblazeCorexI/ublaze_pll/inst/UserClkxCO                    | UBlazeCDxB.UblazeSoPCxI/UBlazeCDxB.RegBankxB.FlagColor1RegPortxDP_reg[0]                                                                                                                                                                         | UBlazeCDxB.UblazeSoPCxI/UBlazePllNotLockedxS                                                                                                                                         |                6 |             64 |
|  UBlazeCDxB.UblazeSoPCxI/UblazeSoPCxB.UblazeCorexI/ublaze_pll/inst/UserClkxCO                    | UBlazeCDxB.UblazeSoPCxI/UblazeSoPCxB.UblazeCorexI/ublaze_core/U0/MicroBlaze_Core_I/Performance.Core/Decode_I/PreFetch_Buffer_I1/Gen_Mux_Select_LUT6[2].Gen_Sel_DFF/if_pc_reg[0][0]                                                               | UBlazeCDxB.UblazeSoPCxI/UblazeSoPCxB.UblazeCorexI/ublaze_core/U0/MicroBlaze_Core_I/sync_reset                                                                                        |                7 |             64 |
|  UBlazeCDxB.UblazeSoPCxI/UblazeSoPCxB.UblazeCorexI/ublaze_pll/inst/UserClkxCO                    | UBlazeCDxB.UblazeSoPCxI/UblazeSoPCxB.UblazeCorexI/axi_interconnect/xbar/inst/gen_sasd.crossbar_sasd_0/addr_arbiter_inst/s_axi_rvalid[0]                                                                                                          | UBlazeCDxB.UblazeSoPCxI/UblazeSoPCxB.UblazeCorexI/ublaze_core/U0/MicroBlaze_Core_I/sync_reset                                                                                        |                5 |             64 |
|  FpgaUserCDxB.ClkMandelbrotxI/inst/ClkMandelxCO                                                  | FpgaUserCDxB.ImageGeneratorxI/mandelbrot/zni                                                                                                                                                                                                     | FpgaUserCDxB.ImageGeneratorxI/mandelbrot/ready_s                                                                                                                                     |                9 |             64 |
|  UBlazeCDxB.UblazeSoPCxI/UblazeSoPCxB.UblazeCorexI/ublaze_pll/inst/UserClkxCO                    | UBlazeCDxB.UblazeSoPCxI/UBlazeCDxB.RegBankxB.InterruptRegPortxDP_reg[0][0]                                                                                                                                                                       | UBlazeCDxB.UblazeSoPCxI/UBlazePllNotLockedxS                                                                                                                                         |               14 |             64 |
|  UBlazeCDxB.UblazeSoPCxI/UblazeSoPCxB.UblazeCorexI/ublaze_pll/inst/UserClkxCO                    | UBlazeCDxB.UblazeSoPCxI/E[0]                                                                                                                                                                                                                     | UBlazeCDxB.UblazeSoPCxI/UBlazePllNotLockedxS                                                                                                                                         |                7 |             64 |
|  UBlazeCDxB.UblazeSoPCxI/UblazeSoPCxB.UblazeCorexI/mdm/U0/No_Dbg_Reg_Access.BUFG_DRCK/Dbg_Clk_31 | UBlazeCDxB.UblazeSoPCxI/UblazeSoPCxB.UblazeCorexI/ublaze_core/U0/MicroBlaze_Core_I/Performance.Core/Use_Debug_Logic.Master_Core.Debug_Perf/New_Dbg_Instr_TCK                                                                                     |                                                                                                                                                                                      |                9 |             64 |
|  UBlazeCDxB.UblazeSoPCxI/UblazeSoPCxB.UblazeCorexI/ublaze_pll/inst/UserClkxCO                    | UBlazeCDxB.UblazeSoPCxI/UblazeSoPCxB.UblazeCorexI/axi_timer/U0/TC_CORE_I/TIMER_CONTROL_I/CE                                                                                                                                                      | UBlazeCDxB.UblazeSoPCxI/UblazeSoPCxB.UblazeCorexI/axi_timer/U0/TC_CORE_I/GEN_SECOND_TIMER.COUNTER_1_I/COUNTER_I/INFERRED_GEN.icount_out_reg[31]_0                                    |               10 |             64 |
|  UBlazeCDxB.UblazeSoPCxI/UblazeSoPCxB.UblazeCorexI/ublaze_pll/inst/UserClkxCO                    | UBlazeCDxB.UblazeSoPCxI/UblazeSoPCxB.UblazeCorexI/axi_timer/U0/TC_CORE_I/TIMER_CONTROL_I/INPUT_DOUBLE_REGS3/INFERRED_GEN.icount_out_reg[0]                                                                                                       | UBlazeCDxB.UblazeSoPCxI/UblazeSoPCxB.UblazeCorexI/axi_timer/U0/TC_CORE_I/GEN_SECOND_TIMER.COUNTER_1_I/COUNTER_I/INFERRED_GEN.icount_out_reg[31]_0                                    |                5 |             64 |
|  UBlazeCDxB.UblazeSoPCxI/UblazeSoPCxB.UblazeCorexI/ublaze_pll/inst/UserClkxCO                    | UBlazeCDxB.UblazeSoPCxI/UblazeSoPCxB.UblazeCorexI/axi_timer/U0/TC_CORE_I/TIMER_CONTROL_I/INPUT_DOUBLE_REGS3/INFERRED_GEN.icount_out_reg[0]_0                                                                                                     | UBlazeCDxB.UblazeSoPCxI/UblazeSoPCxB.UblazeCorexI/axi_timer/U0/TC_CORE_I/GEN_SECOND_TIMER.COUNTER_1_I/COUNTER_I/INFERRED_GEN.icount_out_reg[31]_0                                    |                5 |             64 |
|  UBlazeCDxB.UblazeSoPCxI/UblazeSoPCxB.UblazeCorexI/ublaze_pll/inst/UserClkxCO                    |                                                                                                                                                                                                                                                  | UBlazeCDxB.UblazeSoPCxI/UblazeSoPCxB.UblazeCorexI/ublaze_core/U0/MicroBlaze_Core_I/Performance.Core/p_1_out                                                                          |                8 |             64 |
|  UBlazeCDxB.UblazeSoPCxI/UblazeSoPCxB.UblazeCorexI/ublaze_pll/inst/UserClkxCO                    | UBlazeCDxB.UblazeSoPCxI/UblazeSoPCxB.UblazeCorexI/axi_timer/U0/TC_CORE_I/TIMER_CONTROL_I/CE_0                                                                                                                                                    | UBlazeCDxB.UblazeSoPCxI/UblazeSoPCxB.UblazeCorexI/axi_timer/U0/TC_CORE_I/GEN_SECOND_TIMER.COUNTER_1_I/COUNTER_I/INFERRED_GEN.icount_out_reg[31]_0                                    |                9 |             64 |
|  UBlazeCDxB.UblazeSoPCxI/UblazeSoPCxB.UblazeCorexI/ublaze_pll/inst/UserClkxCO                    | UBlazeCDxB.UblazeSoPCxI/UblazeSoPCxB.UblazeCorexI/axi_timer/U0/AXI4_LITE_I/I_SLAVE_ATTACHMENT/s_axi_rresp_i                                                                                                                                      | UBlazeCDxB.UblazeSoPCxI/UblazeSoPCxB.UblazeCorexI/axi_timer/U0/AXI4_LITE_I/I_SLAVE_ATTACHMENT/rst                                                                                    |               32 |             64 |
|  UBlazeCDxB.UblazeSoPCxI/UblazeSoPCxB.UblazeCorexI/ublaze_pll/inst/UserClkxCO                    | UBlazeCDxB.UblazeSoPCxI/UblazeSoPCxB.UblazeCorexI/axi_interconnect/xbar/inst/gen_sasd.crossbar_sasd_0/addr_arbiter_inst/E[0]                                                                                                                     |                                                                                                                                                                                      |                6 |             66 |
|  UBlazeCDxB.UblazeSoPCxI/UblazeSoPCxB.UblazeCorexI/ublaze_pll/inst/UserClkxCO                    |                                                                                                                                                                                                                                                  | UBlazeCDxB.UblazeSoPCxI/UBlazePllNotLockedxS                                                                                                                                         |               18 |             88 |
|  UBlazeCDxB.UblazeSoPCxI/UblazeSoPCxB.UblazeCorexI/mdm/U0/No_Dbg_Reg_Access.BUFG_DRCK/Dbg_Clk_31 | UBlazeCDxB.UblazeSoPCxI/UblazeSoPCxB.UblazeCorexI/mdm/U0/Use_E2.BSCAN_I/Dbg_Capture_0                                                                                                                                                            |                                                                                                                                                                                      |               13 |             94 |
|  VgaHdmiCDxB.HdmixI/ClkVgaHdmi1024x600xG.ClkVgaHdmi1024x600xI/inst/ClkVgaxCO                     |                                                                                                                                                                                                                                                  |                                                                                                                                                                                      |               29 |            132 |
|  UBlazeCDxB.UblazeSoPCxI/UblazeSoPCxB.UblazeCorexI/ublaze_pll/inst/UserClkxCO                    | UBlazeCDxB.UblazeSoPCxI/UblazeSoPCxB.UblazeCorexI/ublaze_core/U0/MicroBlaze_Core_I/Performance.Core/Decode_I/PreFetch_Buffer_I1/Instruction_Prefetch_Mux[42].Instr_Mux_MUXF7/Using_FPGA.Native_0                                                 |                                                                                                                                                                                      |               11 |            150 |
|  UBlazeCDxB.UblazeSoPCxI/UblazeSoPCxB.UblazeCorexI/mdm/U0/No_Dbg_Reg_Access.BUFG_DRCK/Dbg_Clk_31 |                                                                                                                                                                                                                                                  |                                                                                                                                                                                      |               32 |            160 |
|  UBlazeCDxB.UblazeSoPCxI/UblazeSoPCxB.UblazeCorexI/ublaze_pll/inst/UserClkxCO                    | UBlazeCDxB.UblazeSoPCxI/UblazeSoPCxB.UblazeCorexI/ublaze_core/U0/MicroBlaze_Core_I/Performance.Core/Decode_I/Use_MuxCy[2].OF_Piperun_Stage/MUXCY_I/lopt_1                                                                                        | UBlazeCDxB.UblazeSoPCxI/UblazeSoPCxB.UblazeCorexI/ublaze_core/U0/MicroBlaze_Core_I/sync_reset                                                                                        |               36 |            178 |
|  UBlazeCDxB.UblazeSoPCxI/UblazeSoPCxB.UblazeCorexI/ublaze_pll/inst/UserClkxCO                    | UBlazeCDxB.UblazeSoPCxI/UblazeSoPCxB.UblazeCorexI/ublaze_core/U0/MicroBlaze_Core_I/Performance.Core/Decode_I/mb_halted_1_reg[27]                                                                                                                 |                                                                                                                                                                                      |               16 |            256 |
|  UBlazeCDxB.UblazeSoPCxI/UblazeSoPCxB.UblazeCorexI/ublaze_pll/inst/UserClkxCO                    |                                                                                                                                                                                                                                                  | UBlazeCDxB.UblazeSoPCxI/UblazeSoPCxB.UblazeCorexI/ublaze_core/U0/MicroBlaze_Core_I/sync_reset                                                                                        |               68 |            306 |
|  UBlazeCDxB.UblazeSoPCxI/UblazeSoPCxB.UblazeCorexI/ublaze_pll/inst/UserClkxCO                    |                                                                                                                                                                                                                                                  |                                                                                                                                                                                      |               91 |            410 |
|  UBlazeCDxB.UblazeSoPCxI/UblazeSoPCxB.UblazeCorexI/ublaze_pll/inst/UserClkxCO                    | UBlazeCDxB.UblazeSoPCxI/UblazeSoPCxB.UblazeCorexI/ublaze_core/U0/MicroBlaze_Core_I/Performance.Core/Decode_I/Use_MuxCy[10].OF_Piperun_Stage/MUXCY_I/lopt_1                                                                                       | UBlazeCDxB.UblazeSoPCxI/UblazeSoPCxB.UblazeCorexI/ublaze_core/U0/MicroBlaze_Core_I/sync_reset                                                                                        |               76 |            442 |
+--------------------------------------------------------------------------------------------------+--------------------------------------------------------------------------------------------------------------------------------------------------------------------------------------------------------------------------------------------------+--------------------------------------------------------------------------------------------------------------------------------------------------------------------------------------+------------------+----------------+


