Design Route Status
                                               :      # nets :
   ------------------------------------------- : ----------- :
   # of logical nets.......................... :        8149 :
       # of nets not needing routing.......... :        3618 :
           # of internally routed nets........ :        3585 :
           # of nets with no loads............ :          33 :
       # of routable nets..................... :        4531 :
           # of fully routed nets............. :        4531 :
       # of nets with routing errors.......... :           0 :
   ------------------------------------------- : ----------- :

