xpm_cdc.sv,systemverilog,xil_defaultlib,../../../../../../../../../../../../../opt/Xilinx/Vivado/2018.2/data/ip/xpm/xpm_cdc/hdl/xpm_cdc.sv,
xpm_memory.sv,systemverilog,xil_defaultlib,../../../../../../../../../../../../../opt/Xilinx/Vivado/2018.2/data/ip/xpm/xpm_memory/hdl/xpm_memory.sv,
xpm_VCOMP.vhd,vhdl,xpm,../../../../../../../../../../../../../opt/Xilinx/Vivado/2018.2/data/ip/xpm/xpm_VCOMP.vhd,
dist_mem_gen_v8_0.v,verilog,dist_mem_gen_v8_0_12,../../../ipstatic/simulation/dist_mem_gen_v8_0.v,
dist_mem_gen_0.v,verilog,xil_defaultlib,../../../../mandelbrot_pinout.srcs/sources_1/ip/dist_mem_gen_0/sim/dist_mem_gen_0.v,
glbl.v,Verilog,xil_defaultlib,glbl.v
