000000000000000000000000
111111111111111111111111
111111111111111111111111
111111111111111111111111
111111111111111111111111
111111111111111111111111
111111111111111111111111
111111111111111111111111
111111111111111111111111
111111111111111111111111
111111111111111111111111
111111111111111111111111
111111111111111111111111
111111111111111111111111
111111111111111111111111
111111111111111111110000
111111111111111111110000
111111111111111111110000
111111111111111111110000
111111111111111111110000
111111111111111111110000
111111111111111111110000
111111111111111111110000
111111111111111111110000
111111111111111111110000
111111111111111111110000
111111111111111111110000
111111111111111111110000
111111111111111111110000
111111111111111111110000
111111111111111111110000
111111111111111111110000
111111111111111111110000
111111111111111111110000
111111111111111111110000
111111111111111111110000
111111111111111111110000
111111111111111100000000
111111111111111100000000
111111111111111100000000
111111111111111100000000
111111111111111100000000
111111111111111100000000
111111111111111100000000
111111111111111100000000
111111111111111100000000
111111111111111100000000
111111111111111100000000
111111111111111100000000
111111111111111100000000
111111111111111100000000
111111111111111100000000
111111111111000000000000
111111111111000000000000
111111111111000000000000
111111111111000000000000
111111111111000000000000
111111111111000000000000
111111111111000000000000
111111111111000000000000
111111111111000000000000
111111111111000000000000
111111111111000000000000
111111111111000000000000
111111111111000000000000
111111111111000000000000
111111111111000000000000
111111111111000000000000
111111111111000000000000
111111111111000000000000
111111111111000000000000
111111111111000000000000
111111110000000000000000
111111110000000000000000
111111110000000000000000
111111110000000000000000
111111110000000000000000
111111110000000000000000
111111110000000000000000
111111110000000000000000
111111110000000000000000
111111110000000000000000
111111110000000000000000
111111110000000000000000
111111110000000000000000
111111110000000000000000
111111110000000000000000
111111110000000000000000
111111110000000000000000
111111110000000000000000
111111110000000000000000
111111110000000000000000
111111110000000000000000
111111110000000000000000
111100000000000000000000
111100000000000000000000
111100000000000000000000
111100000000000000000000
111100000000000000000000
111100000000000000000000
111100000000000000000000
111100000000000000000000
111100000000000000000000
111100000000000000000000
111100000000000000000000
111100000000000000000000
111100000000000000000000
111100000000000000000000
111100000000000000000000
111100000000000000000000
111100000000000000000000
111111111111111111111111
111111111111111111111111
111111111111111111111111
111111111111111111111111
111111111111111111111111
111111111111111111111111
111111111111111111111111
111111111111111111111111
111111111111111111111111
111111111111111111111111
111111111111111111111111
111111111111111111111111
111111111111111111111111
000000000000000000000000
